SOL3070 Análisis de Datos Categóricos
…
Bonus: Responder la pregunta “bonus” NO es un requisito necesario para obtener puntaje completo. Responder incorrectamente la pregunta “bonus” no afectará negativamente la nota obtenida, pero responderla correctamente mejorará la nota obtenida en un máximo de 0.5 puntos (o en la cantidad necesaria para obtener nota máxima si la nota original fuera superior a 6.5)

Introducción

En este trabajo se utilizarán datos extraídos de 9.303 biografías de chilenos disponibles en Wikipedia, en hasta 160 idiomas. Esta información fue recopilada como parte del proyecto de investigación ‘Social Memory about Chileans in Wikipedia’, financiado por Wikimedia Research Fund. Si utilizas estos datos, por favor cita la siguiente publicación: Beytía, P., Rojas, C. & Cruz, C. (2024). Social memory about people from a country. The case of notable Chileans in Wikipedia. Wiki Workshop 2024.

Estos datos se emplearán para modelar la probabilidad de que una persona con biografía en Wikipedia pertenezca a una de las siguientes cuatro categorías de la vida pública: ‘Cultura & Ciencia’, ‘Política’, ‘Deporte’ u ‘Otro’. Como variables predictoras se utilizarán el género y el año de nacimiento de los individuos.

Los datos están disponibles en el repositorio del curso para ser descargados.

Datos

Visualización rápida de la base de datos:

# A tibble: 9,292 × 4
   person            categoria         genero   agno_nacimiento
   <chr>             <chr>             <chr>              <dbl>
 1 Gabriela Mistral  Cultura & Ciencia femenino            1889
 2 Michelle Bachelet Política          femenino            1951
 3 Isabel Allende    Cultura & Ciencia femenino            1942
 4 Violeta Parra     Cultura & Ciencia femenino            1917
 5 Nicole            Cultura & Ciencia femenino            1977
 6 Coté de Pablo     Cultura & Ciencia femenino            1979
 7 Camila Vallejo    Política          femenino            1988
 8 Margot Honecker   Política          femenino            1927
 9 Xiye Bastida      Política          femenino            2002
10 Leonor Varela     Cultura & Ciencia femenino            1972
# ℹ 9,282 more rows
…
