SOL3070 Análisis de Datos Categóricos
…
wiki_chileans <- wiki_chileans %>% select(personLabel,genderLabel,occupationLabel,birthyear)

wiki_chileans <- wiki_chileans %>% mutate(
  person = personLabel,
  genero = genderLabel,
  politico = if_else(str_detect(occupationLabel, "(pol[ií]tic[oa])"), 1, 0),
  agno_nacimiento = birthyear) %>%
  select(person,genero,politico,agno_nacimiento)  %>%
  filter(genero != "género fluido" & genero != "mujer transgénero")

print(wiki_chileans)

# A tibble: 9,292 × 4
   person            genero   politico agno_nacimiento
   <chr>             <chr>       <dbl>           <dbl>
 1 Gabriela Mistral  femenino        0            1889
 2 Michelle Bachelet femenino        1            1951
 3 Isabel Allende    femenino        0            1942
 4 Violeta Parra     femenino        0            1917
 5 Nicole            femenino        0            1977
 6 Coté de Pablo     femenino        0            1979
 7 Camila Vallejo    femenino        1            1988
 8 Margot Honecker   femenino        1            1927
 9 Xiye Bastida      femenino        0            2002
10 Leonor Varela     femenino        0            1972
# ℹ 9,282 more rows
…
