SOL3070 Análisis de Datos Categóricos
…
#write_csv(wiki_chileans, "/Users/mauricio/Library/Mobile Documents/com~apple~CloudDocs/Teaching/ISUC/2024_2_categorical_data_analysis/hw_ans/t_2_answers/wiki_chileans.csv")

print(wiki_chileans)

# A tibble: 9,292 × 4
   person            categoria         genero   agno_nacimiento
   <chr>             <chr>             <chr>              <dbl>
 1 Gabriela Mistral  Cultura & Ciencia femenino            1889
 2 Michelle Bachelet Política          femenino            1951
 3 Isabel Allende    Cultura & Ciencia femenino            1942
 4 Violeta Parra     Cultura & Ciencia femenino            1917
 5 Nicole            Cultura & Ciencia femenino            1977
 6 Coté de Pablo     Cultura & Ciencia femenino            1979
 7 Camila Vallejo    Política          femenino            1988
 8 Margot Honecker   Política          femenino            1927
 9 Xiye Bastida      Política          femenino            2002
10 Leonor Varela     Cultura & Ciencia femenino            1972
# ℹ 9,282 more rows
…
