Análisis de Datos Categóricos (SOC3070)
…
class: inverse, center, middle

## Regresión Logística Multinomial: Interpretación

---
class:center, middle

## Efectos marginales sobre el logit 

---
## Un ejemplo empírico

```
## # A tibble: 2,700 × 8
##    region population sex     age education income statusquo vote 
##    <fct>       <int> <fct> <int> <fct>      <int>     <dbl> <fct>
##  1 C          175000 F        64 P             NA     -1.80 U    
##  2 M           25000 M        27 S           7500     -1.74 <NA> 
##  3 SA         250000 F        21 PS         35000     -1.73 N    
##  4 SA         250000 F        42 S          35000     -1.48 <NA> 
##  5 SA         250000 M        27 S           7500     -1.34 N    
##  6 C          250000 F        22 S           7500     -1.33 N    
##  7 M           15000 M        34 P          15000     -1.33 N    
##  8 SA         250000 M        66 S          35000     -1.31 <NA> 
##  9 SA         250000 F        25 S          15000     -1.31 A    
## 10 S          250000 F        39 S          15000     -1.31 N    
## # ℹ 2,690 more rows
```
…
