Análisis de Datos Categóricos (SOC3070)
…
- Es posible estimar `\(J-1\)` regresiones logísticas separadamente pero no garantiza que `\(\sum_{j}p_{i} = 1\)`.

---
class: inverse, center, middle

## Regresión logística multinomial en la práctica

---
## Regresión logística multinomial en la práctica

Para ejemplificar el uso de regresión logística multinomial trabajaremos con los datos de intención de voto en el plebiscito de 1988. 

```
## # A tibble: 2,700 × 8
##    region population sex     age education income statusquo vote 
##    <fct>       <int> <fct> <int> <fct>      <int>     <dbl> <fct>
##  1 C          175000 F        64 P             NA     -1.80 U    
##  2 M           25000 M        27 S           7500     -1.74 <NA> 
##  3 SA         250000 F        21 PS         35000     -1.73 N    
##  4 SA         250000 F        42 S          35000     -1.48 <NA> 
##  5 SA         250000 M        27 S           7500     -1.34 N    
##  6 C          250000 F        22 S           7500     -1.33 N    
##  7 M           15000 M        34 P          15000     -1.33 N    
##  8 SA         250000 M        66 S          35000     -1.31 <NA> 
##  9 SA         250000 F        25 S          15000     -1.31 A    
## 10 S          250000 F        39 S          15000     -1.31 N    
## # ℹ 2,690 more rows
```
…
``` r
mlogit_vote_sq <- multinom(vote ~ statusquo, trace=F, data=plebs_1988)
```

.pull-left[

``` r
plebs_1988$intercept <- 1
X <- plebs_1988[, c("intercept", "statusquo")]; X
```

```
## # A tibble: 2,700 × 2
##    intercept statusquo
##        <dbl>     <dbl>
##  1         1     1.01 
##  2         1    -1.30 
##  3         1     1.23 
##  4         1    -1.03 
##  5         1    -1.10 
##  6         1    -1.05 
##  7         1    -0.786
##  8         1    -1.11 
##  9         1    -1.01 
## 10         1    -1.30 
## # ℹ 2,690 more rows
```
…
