SOL3070 Análisis de Datos Categóricos
…
Bonus: Responder la pregunta bonus NO es un requisito necesario para obtener puntaje completo. Responder incorrectamente la pregunta bonus no afectará negativamente la nota obtenida, pero responderla correctamente mejorará la nota obtenida en un máximo de 0.5 puntos (o en la cantidad necesaria para obtener nota máxima si la nota original fuera superior a 6.5)

Introducción

En este trabajo usarán datos extraidos de 9.303 biografías de chilenos disponibles en Wikipedia (en hasta 160 lenguas). La información de este fue recopilada en el proyecto de investigación “Social Memory about Chileans in Wikipedia”, financiado por Wikimedia Research Fund. Si usas estos datos, por favor cita la siguiente publicación: Beytía, P., Rojas, C. & Cruz, C. (2024). Social memory about people from a country. The case of notable Chileans in Wikipedia. Wiki Workshop 2024.​

Dado que contar con una biografía en Wikipedia es un indicador de prominencia social, utilizaremos esta subpoblación de individuos “notables” para modelar la probabilidad de que una persona destacada se dedique a la política, considerando como variables predictoras su género y año de nacimiento.

Los datos están disponibles en el repositorio del curso para ser descargados.

Datos

Visualización rápida de la base de datos:

# A tibble: 9,292 × 5
    ...1 person            genero   politico agno_nacimiento
   <dbl> <chr>             <chr>       <dbl>           <dbl>
 1     1 Gabriela Mistral  femenino        0            1889
 2     2 Michelle Bachelet femenino        1            1951
 3     3 Isabel Allende    femenino        0            1942
 4     4 Violeta Parra     femenino        0            1917
 5     5 Nicole            femenino        0            1977
 6     6 Coté de Pablo     femenino        0            1979
 7     7 Camila Vallejo    femenino        1            1988
 8     8 Margot Honecker   femenino        1            1927
 9     9 Xiye Bastida      femenino        0            2002
10    10 Leonor Varela     femenino        0            1972
# ℹ 9,282 more rows
…
