Práctica 01: Introducción a R, tidyverse y Datos Categóricos
…
1. select() - Seleccionar Columnas

Code

# Selección básica
estudiantes %>% select(nombre, edad, carrera)

#> # A tibble: 50 × 3
#>   nombre        edad carrera   
#>   <chr>        <int> <chr>     
#> 1 Estudiante 1    24 Historia  
#> 2 Estudiante 2    24 Sociología
#> 3 Estudiante 3    20 Economía  
#> 4 Estudiante 4    23 Sociología
#> 5 Estudiante 5    20 Economía  
#> 6 Estudiante 6    19 Historia  
#> # ℹ 44 more rows

Code

# Selección con funciones auxiliares
estudiantes %>% select(starts_with("c"))  # Columnas que inician con 'c'

#> # A tibble: 50 × 2
#>   carrera    creditos
#>   <chr>         <int>
#> 1 Historia        149
#> 2 Sociología      149
#> 3 Economía        171
#> 4 Sociología      144
#> 5 Economía        135
#> 6 Historia        143
#> # ℹ 44 more rows

Code

estudiantes %>% select(where(is.numeric)) # Solo columnas numéricas

#> # A tibble: 50 × 4
#>      id  edad promedio creditos
#>   <int> <int>    <dbl>    <int>
#> 1     1    24      5.7      149
#> 2     2    24      5.5      149
#> 3     3    20      5.5      171
#> 4     4    23      6.6      144
#> 5     5    20      5.3      135
#> 6     6    19      6.7      143
#> # ℹ 44 more rows

2. filter() - Filtrar Filas

Code

# Filtros básicos
estudiantes %>% filter(carrera == "Sociología")

#> # A tibble: 15 × 7
#>      id nombre         edad carrera    promedio creditos beca 
#>   <int> <chr>         <int> <chr>         <dbl>    <int> <lgl>
#> 1     2 Estudiante 2     24 Sociología      5.5      149 FALSE
#> 2     4 Estudiante 4     23 Sociología      6.6      144 FALSE
#> 3     8 Estudiante 8     23 Sociología      6        130 FALSE
#> 4    10 Estudiante 10    22 Sociología      5.7      139 TRUE 
#> 5    11 Estudiante 11    21 Sociología      5.8      159 TRUE 
#> 6    15 Estudiante 15    19 Sociología      4.6      171 FALSE
#> # ℹ 9 more rows

Code

estudiantes %>% filter(promedio > 6.0)

#> # A tibble: 12 × 7
#>      id nombre         edad carrera    promedio creditos beca 
#>   <int> <chr>         <int> <chr>         <dbl>    <int> <lgl>
#> 1     4 Estudiante 4     23 Sociología      6.6      144 FALSE
#> 2     6 Estudiante 6     19 Historia        6.7      143 TRUE 
#> 3    19 Estudiante 19    20 Economía        6.2      161 FALSE
#> 4    20 Estudiante 20    20 Sociología      7.1      178 FALSE
#> 5    23 Estudiante 23    18 Economía        6.3      176 FALSE
#> 6    26 Estudiante 26    20 Psicología      6.3      165 TRUE 
#> # ℹ 6 more rows
…
# Filtros múltiples
estudiantes %>% filter(carrera == "Economía" & beca == TRUE)

#> # A tibble: 3 × 7
#>      id nombre         edad carrera  promedio creditos beca 
#>   <int> <chr>         <int> <chr>       <dbl>    <int> <lgl>
#> 1    14 Estudiante 14    18 Economía      4.7      155 TRUE 
#> 2    25 Estudiante 25    22 Economía      4.9      127 TRUE 
#> 3    50 Estudiante 50    20 Economía      4.7      129 TRUE

Code

estudiantes %>% filter(edad <= 19 | promedio >= 6.5)

#> # A tibble: 18 × 7
#>      id nombre         edad carrera    promedio creditos beca 
#>   <int> <chr>         <int> <chr>         <dbl>    <int> <lgl>
#> 1     4 Estudiante 4     23 Sociología      6.6      144 FALSE
#> 2     6 Estudiante 6     19 Historia        6.7      143 TRUE 
#> 3     7 Estudiante 7     19 Psicología      4.3      173 FALSE
#> 4    14 Estudiante 14    18 Economía        4.7      155 TRUE 
#> 5    15 Estudiante 15    19 Sociología      4.6      171 FALSE
#> 6    20 Estudiante 20    20 Sociología      7.1      178 FALSE
#> # ℹ 12 more rows

Code

# Filtros avanzados
estudiantes %>% filter(carrera %in% c("Sociología", "Historia"))

#> # A tibble: 25 × 7
#>      id nombre         edad carrera    promedio creditos beca 
#>   <int> <chr>         <int> <chr>         <dbl>    <int> <lgl>
#> 1     1 Estudiante 1     24 Historia        5.7      149 FALSE
#> 2     2 Estudiante 2     24 Sociología      5.5      149 FALSE
#> 3     4 Estudiante 4     23 Sociología      6.6      144 FALSE
#> 4     6 Estudiante 6     19 Historia        6.7      143 TRUE 
#> 5     8 Estudiante 8     23 Sociología      6        130 FALSE
#> 6    10 Estudiante 10    22 Sociología      5.7      139 TRUE 
#> # ℹ 19 more rows

Code

estudiantes %>% filter(between(promedio, 5.0, 6.0))

#> # A tibble: 30 × 7
#>      id nombre        edad carrera    promedio creditos beca 
#>   <int> <chr>        <int> <chr>         <dbl>    <int> <lgl>
#> 1     1 Estudiante 1    24 Historia        5.7      149 FALSE
#> 2     2 Estudiante 2    24 Sociología      5.5      149 FALSE
#> 3     3 Estudiante 3    20 Economía        5.5      171 FALSE
#> 4     5 Estudiante 5    20 Economía        5.3      135 FALSE
#> 5     8 Estudiante 8    23 Sociología      6        130 FALSE
#> 6     9 Estudiante 9    20 Psicología      5.6      167 FALSE
#> # ℹ 24 more rows

3. mutate() - Crear/Modificar Columnas

Code

# Crear nuevas variables
estudiantes %>%
  mutate(
    promedio_centesimal = promedio * 10,
    edad_meses = edad * 12,
    beca_texto = if_else(beca, "Sí", "No")
  ) %>%
  select(nombre, promedio, promedio_centesimal, beca_texto)

#> # A tibble: 50 × 4
#>   nombre       promedio promedio_centesimal beca_texto
#>   <chr>           <dbl>               <dbl> <chr>     
#> 1 Estudiante 1      5.7                  57 No        
#> 2 Estudiante 2      5.5                  55 No        
#> 3 Estudiante 3      5.5                  55 No        
#> 4 Estudiante 4      6.6                  66 No        
#> 5 Estudiante 5      5.3                  53 No        
#> 6 Estudiante 6      6.7                  67 Sí        
#> # ℹ 44 more rows
…
4. arrange() - Ordenar Filas

Code

# Ordenamiento básico
estudiantes %>% arrange(edad) %>% select(nombre, edad)

#> # A tibble: 50 × 2
#>   nombre         edad
#>   <chr>         <int>
#> 1 Estudiante 14    18
#> 2 Estudiante 21    18
#> 3 Estudiante 23    18
#> 4 Estudiante 24    18
#> 5 Estudiante 31    18
#> 6 Estudiante 36    18
#> # ℹ 44 more rows

Code

# Ordenamiento múltiple
estudiantes %>% 
  arrange(carrera, desc(promedio)) %>% 
  select(nombre, carrera, promedio)

#> # A tibble: 50 × 3
#>   nombre        carrera  promedio
#>   <chr>         <chr>       <dbl>
#> 1 Estudiante 37 Economía      6.4
#> 2 Estudiante 23 Economía      6.3
#> 3 Estudiante 19 Economía      6.2
#> 4 Estudiante 38 Economía      5.8
#> 5 Estudiante 3  Economía      5.5
#> 6 Estudiante 5  Economía      5.3
#> # ℹ 44 more rows
…
print(resumen_funciones)

#> # A tibble: 12 × 3
#>   paquete funcion     proposito                
#>   <chr>   <chr>       <chr>                    
#> 1 dplyr   select()    Seleccionar columnas     
#> 2 dplyr   filter()    Filtrar filas            
#> 3 dplyr   mutate()    Crear/modificar variables
#> 4 dplyr   arrange()   Ordenar datos            
#> 5 dplyr   summarise() Resumir datos            
#> 6 dplyr   group_by()  Agrupar para operaciones 
#> # ℹ 6 more rows
