Ayudantía 6
…
- Codififación de variables: 

```r
library(tibble)
```

```r
#Cargar base de datos
load("nsca2018.Rda")
tibble(data1)
```

```
# # A tibble: 8,609 x 15
#    sexo   edad raza  educacion hijes jazz  clasica opera ballet museos libros
#    <fct> <dbl> <fct> <fct>     <dbl> <fct> <fct>   <fct> <fct>  <fct>  <fct> 
#  1 (2) …    48 (01)… (37) 11t…     0 (2) … (2) No  (2) … (2) No (2) No (2) No
#  2 (2) …    78 (01)… (39) Hig…     0 (2) … (2) No  (2) … (2) No (2) No (2) No
#  3 (2) …    72 (01)… (39) Hig…     0 (2) … (2) No  (2) … (2) No (2) No (1) Y…
#  4 (1) …    51 (01)… (46) Doc…     1 (2) … (2) No  (2) … (2) No (2) No (2) No
#  5 (2) …    57 (01)… (39) Hig…     0 (2) … (2) No  (2) … (2) No (2) No (2) No
#  6 (2) …    66 (01)… (39) Hig…     0 (2) … (2) No  (2) … (2) No (2) No (1) Y…
#  7 (1) …    73 (01)… (39) Hig…     0 (2) … (2) No  (2) … (2) No (2) No (2) No
#  8 (1) …    19 (01)… (39) Hig…     0 (2) … (2) No  (2) … (2) No (2) No (2) No
#  9 (2) …    68 (01)… (36) 10t…     0 (2) … (2) No  (2) … (2) No (2) No (2) No
# 10 (1) …    63 (01)… (39) Hig…     0 (2) … (2) No  (2) … (2) No (2) No (1) Y…
# # … with 8,599 more rows, and 4 more variables: sexo_b <dbl>, museos_b <dbl>,
# #   raza_b <dbl>, edu_b <dbl>
```
…
