Ejercicio 1
…
# Mostrar las estadísticas mensuales
print(monthly_stats)

# Visualizar las estadísticas mensuales
ggplot(monthly_stats, aes(x = month, y = mean_value, color = group)) +
  geom_line() +
  geom_point() +
  labs(title = "Tendencia mensual por grupo",
       x = "Mes", y = "Valor medio") +
  theme_minimal() +
  theme(legend.position = "bottom")
```

# A tibble: 33 × 5
   month      group mean_value median_value     n
   <date>     <chr>      <dbl>        <dbl> <int>
 1 2023-01-01 A        -0.337       -0.326      3
 2 2023-01-01 B         0.665        0.665      2
 3 2023-01-01 C         0.0779       0.190      6
 4 2023-02-01 A         0.599        0.599      2
 5 2023-02-01 B         0.230        0.230      2
 6 2023-02-01 C        -0.129       -0.372      3
 7 2023-03-01 A        -0.186       -0.186      2
 8 2023-03-01 B         1.15         1.15       1
 9 2023-03-01 C        -1.27        -1.27       2
10 2023-04-01 A         0.0619      -0.0249     8
# ℹ 23 more rows
…
En el siguiente chunk creamos un vector identificador para cada uno de los alteris presentes en la data “alteris”. Lo identificamos como objeto tibble. Además creamos un identificador único para cada uno de los confidentes.

```{r}
alteris<-rbind(alter_1,alter_2,alter_3,alter_4,alter_5)
alteris<-arrange(alteris, .egoID)
alteris   <- rowid_to_column(alteris, var = ".altID")
alteris   <- as_tibble(alteris)
#alteris$n <- NULL
```

```{r}
as_tibble(alteris)
```

# A tibble: 17,085 × 10
   .altID  .egoID alter_sexo alter_edad alter_rel alter_tiempo alter_barrio
    <int>   <dbl>      <dbl>      <dbl>     <dbl>        <dbl>        <dbl>
 1      1 1101011          2         59         5            5            1
 2      2 1101011          2         60         5            5            1
 3      3 1101011          1         62         5            5            1
 4      4 1101011         NA         NA        NA           NA           NA
 5      5 1101011         NA         NA        NA           NA           NA
 6      6 1101012          2         42         2            5            2
 7      7 1101012         NA         NA        NA           NA           NA
 8      8 1101012         NA         NA        NA           NA           NA
 9      9 1101012         NA         NA        NA           NA           NA
10     10 1101012         NA         NA        NA           NA           NA
# ℹ 17,075 more rows
# ℹ 3 more variables: alter_educ <dbl>, alter_relig <dbl>, alter_ideol <dbl>
…
